#513 - Quintenbury

owner = F16
controller = F16
add_core = F16
culture = ourdi
religion = regent_court


base_tax = 2
base_production = 4
base_manpower = 3

trade_goods = salt

capital = ""

is_city = yes









