# Do not change tags in here without changing every other reference to them.
# If adding new dieties, make sure they are uniquely named.

castellos =
{
	legitimacy = 0.1
	republican_tradition = 0.1
	devotion = 0.1
	horde_unity = 0.1
	monarch_admin_power = 1
	
    allow = { 
        OR = {
                religion = cannorian_pantheon
                religion = regent_court
        }
		NOT = { has_global_flag = "castellos_is_dead" }
    }
	
	sprite = 1
	
	ai_will_do = {
		factor = 1
		modifier = {
			factor = 3
			personality = ai_balanced
		}
		modifier = {
			factor = 2
			personality = ai_capitalist
		}
		modifier = {
			factor = 1.2
			government = monarchy
		}
		modifier = {
			factor = 2
			culture_group = escanni
		}
	}
}

the_dame =
{
	production_efficiency = 0.1
	idea_cost = -0.1
	
    allow = { 
        OR = {
                religion = cannorian_pantheon
                religion = regent_court
        }
    }
	
	sprite = 2
	
	ai_will_do = {
		factor = 1
		modifier = {
			factor = 2
			personality = ai_capitalist
		}	
		modifier = {
			factor = 2
			personality = ai_balanced
		}	
		modifier = {
			factor = 1.5
			personality = ai_diplomat
		}	
		modifier = {
			factor = 0.5
			personality = ai_militarist
		}
		modifier = {
			factor = 2
			primary_culture = west_damerian	#Kingdom of Dameria dudes
		}
		modifier = {
			factor = 2
			primary_culture = east_damerian
		}
		modifier = {
			factor = 1.3
			primary_culture = vernman
		}
		modifier = {
			factor = 1.3
			primary_culture = pearlsedger	#Lesser boys of the Kingdom of Dameria
		}
		modifier = {
			factor = 5
			tag = A41	#Damish Temple
		}
		modifier = {
			factor = 3
			tag = A85	#Magisterium, I mean she's the goddess of magic after all
		}
	}
}

corin =
{
	leader_land_shock = 1
	land_morale = 0.05
	
    allow = { 
        OR = {
                religion = cannorian_pantheon
                religion = regent_court
        }
		NOT = { is_religion_enabled = corinite }
		NOT = { has_global_flag = "crimson_deluge" }
		#corinite doesnt exist
    }
	sprite = 3
	
	ai_will_do = {
		factor = 1
		modifier = {
			factor = 3
			personality = ai_militarist
		}	
		modifier = {
			factor = 0.5
			personality = ai_capitalist
		}		
		modifier = {
			factor = 2
			has_reform = adventurer_reform
		}
		modifier = {
			factor = 5
			tag = B02	#Corintar
		}
	}
}

adean =
{
	cavalry_power = 0.1
	discipline = 0.05
	
    allow = { 
        OR = {
                religion = cannorian_pantheon
                religion = regent_court
        }
    }
	sprite = 4
	
	ai_will_do = {
		factor = 1
		modifier = {
			factor = 2
			personality = ai_militarist
		}	
		modifier = {
			factor = 0.5
			personality = ai_colonialist
		}	
		modifier = {
			factor = 1.5
			culture_group = escanni
		}		
		modifier = {
			factor = 1.5
			culture_group = lencori
		}	
	}
}

munas_moonsinger =
{
	naval_morale = 0.1
	range = 0.25
	
    allow = { 
        OR = {
                religion = cannorian_pantheon
                religion = regent_court
        }
    }
	sprite = 5
	
	ai_will_do = {
		factor = 1
		modifier = {
			factor = 2
			personality = ai_diplomat
		}	
		modifier = {
			factor = 2
			personality = ai_colonialist
		}		
		modifier = {
			factor = 0.5
			personality = ai_capitalist
		}		
		modifier = {
			factor = 1.5
			primary_culture = west_damerian
		}	
		modifier = {
			factor = 1.5
			primary_culture = east_damerian
		}	
		modifier = {
			factor = 2
			culture_group = elven
		}	
	}
}

ara =
{
	trade_efficiency = 0.1
	global_tax_modifier = 0.1
	
    allow = { 
        OR = {
                religion = cannorian_pantheon
                religion = regent_court
        }
    }
	sprite = 6
	
	ai_will_do = {
		factor = 1
		modifier = {
			factor = 3
			personality = ai_capitalist
		}	
		modifier = {
			factor = 2
			personality = ai_colonialist
		}	
		modifier = {
			factor = 0.5
			personality = ai_militarist
		}		
		modifier = {
			factor = 1.2
			government = republic
		}
		modifier = {
			factor = 2
			primary_culture = crownsman
		}	
		modifier = {
			factor = 10
			tag = A53	#Aramari Temple
		}
		modifier = {
			factor = 5
			OR = {
				tag = H44 #Shining Circle
				tag = H45 #Beggaston
			}
		}	
	}
}


balgar =
{
	build_time = -0.25
	defensiveness = 0.1
	
    allow = { 
        OR = {
                religion = cannorian_pantheon
                religion = regent_court
        }
    }
	sprite = 7
	
	ai_will_do = {
		factor = 1
		modifier = {
			factor = 3
			personality = ai_capitalist
		}	
		modifier = {
			factor = 0.5
			personality = ai_militarist
		}		
		modifier = {
			factor = 2
			culture_group = dwarven
		}	
		modifier = {
			factor = 2
			culture_group = gnomish
		}	
		modifier = {
			factor = 5
			tag = G94 # Balgabar
		}
	}
}

esmaryal =
{
	heir_chance = 0.20
	monarch_diplomatic_power = 1
	
    allow = { 
        OR = {
                religion = cannorian_pantheon
                religion = regent_court
        }
    }
	sprite = 8
	
	ai_will_do = {
		factor = 1
		modifier = {
			factor = 1.5
			personality = ai_diplomat
		}	
		modifier = {
			factor = 1.3
			personality = ai_militarist
		}		
		modifier = {
			factor = 0.5
			personality = ai_capitalist
		}		
		modifier = {
			factor = 2
			primary_culture = esmari
		}	
		modifier = {
			factor = 2
			has_heir = no
			government = monarchy
			ruler_age = 40	#old ruler
		}	
	}
}


ryala =
{
	prestige_decay = -0.01
	diplomatic_upkeep = 1
	
    allow = { 
        OR = {
                religion = cannorian_pantheon
                religion = regent_court
        }
    }
	sprite = 9
	
	ai_will_do = {
		factor = 1
		modifier = {
			factor = 3
			personality = ai_diplomat
		}	
		modifier = {
			factor = 0.5
			personality = ai_militarist
		}		
		modifier = {
			factor = 1.5
			primary_culture = esmari
		}	
		modifier = {
			factor = 5
			tag = A43 # Ryalan Temple
		}
	}
}

minara =
{
	ae_impact = -0.05
	improve_relation_modifier = 0.15
	
    allow = { 
        OR = {
                religion = cannorian_pantheon
                religion = regent_court
        }
    }
	sprite = 10
	
	ai_will_do = {
		factor = 1
		modifier = {
			factor = 2
			personality = ai_diplomat
		}	
		modifier = {
			factor = 1.5
			personality = ai_militarist
		}		
		modifier = {
			factor = 0.5
			personality = ai_balanced
		}	
		modifier = {
			factor = 2
			primary_culture = esmari
		}	
		modifier = {
			factor = 1.5
			primary_culture = high_lorentish
		}	
		modifier = {
			factor = 5
			tag = A10	#Minaran Temple
		}
	}
}

falah =
{
	leader_land_manuever = 1
	artillery_power = 0.1
	
    allow = { 
        OR = {
                religion = cannorian_pantheon
                religion = regent_court
        }
    }
	sprite = 11
	
	ai_will_do = {
		factor = 1
		modifier = {
			factor = 2
			personality = ai_militarist
		}	
		modifier = {
			factor = 0.5
			personality = ai_capitalist
		}	
		modifier = {
			factor = 1.5
			culture_group = elven
		}	
		modifier = {
			factor = 1.2
			culture_group = anbennarian
		}	
	}
}

nerat =
{
	global_unrest = -1
	manpower_recovery_speed = 0.1	
	
    allow = { 
        OR = {
                religion = cannorian_pantheon
                religion = regent_court
        }
    }
	sprite = 12
	
	ai_will_do = {
		factor = 1
		modifier = {
			factor = 2
			personality = ai_capitalist
		}	
		modifier = {
			factor = 2
			personality = ai_militarist
		}	
		modifier = {
			factor = 0.5
			personality = ai_diplomat
		}	
		modifier = {
			factor = 2
			primary_culture = corvurian
		}		
		modifier = {
			factor = 10
			OR = {
				tag = H42 #Onyx Legion
				tag = H43 #Neratica
			}
		}			
	}
}
	
nathalyne =
{
	spy_offence = 0.1
	privateer_efficiency = 0.1
	
    allow = { 
        OR = {
                religion = cannorian_pantheon
                religion = regent_court
        }
    }
	sprite = 13
	
	ai_will_do = {
		factor = 1
		modifier = {
			factor = 2
			personality = ai_capitalist
		}	
		modifier = {
			factor = 2
			personality = ai_diplomat
		}	
		modifier = {
			factor = 1.2
			government = republic
		}
		modifier = {
			factor = 0.5
			personality = ai_militarist
		}			
		modifier = {
			factor = 5
			tag = A74	#Nathalaire
		}
	}
	
}


